{"items":[{"name":"Бастион","discord":null,"link":null,"id":1,"owner":null},{"name":"Турист","discord":null,"link":null,"id":2,"owner":null},{"name":"all in express staking","discord":null,"link":null,"id":3,"owner":null},{"name":"beloroos","discord":null,"link":null,"id":4,"owner":null},{"name":"Bogatur Team","discord":null,"link":null,"id":5,"owner":null},{"name":"Eclipse Poker Team","discord":null,"link":null,"id":6,"owner":null},{"name":"English","discord":null,"link":null,"id":7,"owner":null},{"name":"fortunato","discord":null,"link":null,"id":8,"owner":null},{"name":"GT","discord":null,"link":null,"id":9,"owner":null},{"name":"Kings of Tournaments","discord":null,"link":null,"id":10,"owner":null},{"name":"Kventin92","discord":null,"link":null,"id":11,"owner":null},{"name":"Moonglade","discord":null,"link":"https://www.gipsyteam.ru/profile/moonglade","id":12,"owner":null},{"name":"MrReyder","discord":null,"link":null,"id":13,"owner":null},{"name":"Nemesis Backing","discord":null,"link":null,"id":14,"owner":null},{"name":"PokerStrategy","discord":null,"link":null,"id":15,"owner":null},{"name":"ritsar","discord":null,"link":null,"id":16,"owner":null},{"name":"Rosc","discord":null,"link":null,"id":17,"owner":null},{"name":"Samurai","discord":null,"link":null,"id":18,"owner":null},{"name":"Sawcrew&Sor group","discord":null,"link":null,"id":19,"owner":null},{"name":"Shaolin","discord":null,"link":null,"id":20,"owner":null},{"name":"SpinLegends_ru","discord":null,"link":null,"id":21,"owner":null},{"name":"v-pokere.ru","discord":null,"link":null,"id":22,"owner":null},{"name":"VPluse","discord":null,"link":null,"id":23,"owner":null},{"name":"Win-Win","discord":null,"link":null,"id":24,"owner":null},{"name":"Komanda A","discord":null,"link":"https://komandaa.pro/","id":25,"owner":null},{"name":"RSB","discord":null,"link":null,"id":26,"owner":null},{"name":"Mr.Reyder","discord":null,"link":null,"id":27,"owner":null},{"name":"Poker Edge","discord":null,"link":null,"id":28,"owner":null},{"name":"VPluseTeam","discord":null,"link":null,"id":29,"owner":null},{"name":"KOT","discord":null,"link":null,"id":30,"owner":null},{"name":"Millennium Phoenix Team","discord":null,"link":null,"id":31,"owner":null},{"name":"Mountain Team","discord":null,"link":null,"id":32,"owner":null},{"name":"LuckerTeam","discord":null,"link":null,"id":33,"owner":null},{"name":"NerdSide","discord":null,"link":null,"id":34,"owner":null},{"name":"Cardmates","discord":null,"link":"cardmates.net","id":35,"owner":null},{"name":"ITCfond","discord":null,"link":null,"id":36,"owner":null},{"name":"firestorm","discord":null,"link":null,"id":37,"owner":null},{"name":"NewAgeMTT","discord":null,"link":"тест","id":38,"owner":null},{"name":"Bzik17","discord":null,"link":null,"id":39,"owner":null},{"name":"Navy Seals","discord":null,"link":null,"id":40,"owner":null},{"name":"Vip Poker Gang","discord":null,"link":"https://forum.gipsyteam.ru/index.php?viewtopic=165476&pid=7154633&st=0#entry7154633","id":41,"owner":null},{"name":"new","discord":null,"link":null,"id":42,"owner":null},{"name":"FiatLab","discord":null,"link":null,"id":43,"owner":null},{"name":"Kventin92","discord":null,"link":null,"id":44,"owner":null},{"name":"PokerPROaff","discord":null,"link":null,"id":45,"owner":null},{"name":"Dreamteam","discord":null,"link":null,"id":46,"owner":null},{"name":"CashLab","discord":null,"link":null,"id":47,"owner":null},{"name":"Mogilevhub","discord":null,"link":null,"id":48,"owner":null},{"name":"k345fund","discord":null,"link":null,"id":49,"owner":null},{"name":"K345fund","discord":null,"link":null,"id":50,"owner":null}],"total":76,"page":1,"size":50,"pages":2}