{"items":[{"id":2,"email":null,"is_active":true,"is_superuser":false,"is_verified":false,"username":"test","role":"admin","created_at":"2024-03-23T19:14:17.700190Z"},{"id":7,"email":null,"is_active":true,"is_superuser":false,"is_verified":false,"username":"777zloba777(Саша)#5208","role":"admin","created_at":"2024-03-23T19:14:17.716027Z"},{"id":10,"email":null,"is_active":true,"is_superuser":false,"is_verified":false,"username":"quarry_girl#3347","role":"admin","created_at":"2024-03-23T19:14:17.725437Z"},{"id":21,"email":null,"is_active":true,"is_superuser":false,"is_verified":false,"username":"AlavistaB#8528","role":"admin","created_at":"2024-03-23T19:14:17.764967Z"},{"id":22,"email":null,"is_active":true,"is_superuser":false,"is_verified":false,"username":"firearsenal#7386","role":"admin","created_at":"2024-03-23T19:14:17.767749Z"},{"id":26,"email":null,"is_active":true,"is_superuser":false,"is_verified":false,"username":"[Pocarr Team] victoriardk#6635","role":"admin","created_at":"2024-03-23T19:14:17.780956Z"},{"id":4,"email":null,"is_active":true,"is_superuser":false,"is_verified":false,"username":"JIeni4#1547","role":"manager","created_at":"2024-03-23T19:14:17.706478Z"},{"id":1,"email":"vtuj11@gmail.com","is_active":true,"is_superuser":false,"is_verified":false,"username":"vtuj11","role":"manager","created_at":"2024-03-23T19:14:17.662302Z"},{"id":25,"email":null,"is_active":true,"is_superuser":false,"is_verified":false,"username":"SM0LK0#9971","role":"manager","created_at":"2024-03-23T19:14:17.777951Z"},{"id":19,"email":null,"is_active":true,"is_superuser":false,"is_verified":false,"username":"Vlad_#8079","role":"manager","created_at":"2024-03-23T19:14:17.758240Z"},{"id":28,"email":null,"is_active":true,"is_superuser":false,"is_verified":false,"username":"Vladimir#9903","role":"manager","created_at":"2024-03-23T19:14:17.787435Z"},{"id":31,"email":null,"is_active":true,"is_superuser":false,"is_verified":false,"username":"[V-pokere] Antonio#1847","role":"manager","created_at":"2024-03-23T19:14:17.797633Z"},{"id":43,"email":null,"is_active":true,"is_superuser":false,"is_verified":false,"username":"Lev.Ds","role":"manager","created_at":"2024-03-23T19:14:17.837576Z"},{"id":32,"email":null,"is_active":true,"is_superuser":false,"is_verified":false,"username":"Nikolai#5946","role":"manager","created_at":"2024-03-23T19:14:17.800810Z"},{"id":33,"email":null,"is_active":true,"is_superuser":false,"is_verified":false,"username":"Vital#5532","role":"manager","created_at":"2024-03-23T19:14:17.803989Z"},{"id":34,"email":null,"is_active":true,"is_superuser":false,"is_verified":false,"username":"pokanuktus#4836","role":"manager","created_at":"2024-03-23T19:14:17.807552Z"},{"id":35,"email":null,"is_active":true,"is_superuser":false,"is_verified":false,"username":"Алексей Mr.Reyder #9747","role":"manager","created_at":"2024-03-23T19:14:17.810835Z"},{"id":36,"email":"vezec8@gmail.com","is_active":true,"is_superuser":false,"is_verified":false,"username":"vezec8@gmail.com","role":"manager","created_at":"2024-03-23T19:14:17.814325Z"},{"id":37,"email":null,"is_active":true,"is_superuser":false,"is_verified":false,"username":"Tonic","role":"manager","created_at":"2024-03-23T19:14:17.817573Z"},{"id":14,"email":null,"is_active":true,"is_superuser":false,"is_verified":false,"username":"vadka (Vadim)#2123","role":"manager","created_at":"2024-03-23T19:14:17.741626Z"},{"id":15,"email":null,"is_active":true,"is_superuser":false,"is_verified":false,"username":"Vadimka#5921","role":"manager","created_at":"2024-03-23T19:14:17.744543Z"},{"id":12,"email":null,"is_active":true,"is_superuser":false,"is_verified":false,"username":"ITCFond.Sergey#8672","role":"manager","created_at":"2024-03-23T19:14:17.734245Z"},{"id":13,"email":null,"is_active":true,"is_superuser":false,"is_verified":false,"username":"ITCFond.Andrey#1224","role":"manager","created_at":"2024-03-23T19:14:17.738267Z"},{"id":38,"email":null,"is_active":true,"is_superuser":false,"is_verified":false,"username":"[FS] Vitalii#7203","role":"manager","created_at":"2024-03-23T19:14:17.821335Z"},{"id":20,"email":null,"is_active":true,"is_superuser":false,"is_verified":false,"username":"EN_SP_support#1532","role":"manager","created_at":"2024-03-23T19:14:17.761268Z"},{"id":6,"email":null,"is_active":true,"is_superuser":false,"is_verified":false,"username":"Pokerukr(Pasha)#4836","role":"manager","created_at":"2024-03-23T19:14:17.712766Z"},{"id":29,"email":null,"is_active":true,"is_superuser":false,"is_verified":false,"username":"DeepStorm#5829","role":"manager","created_at":"2024-03-23T19:14:17.791269Z"},{"id":30,"email":null,"is_active":true,"is_superuser":false,"is_verified":false,"username":"Poison88#8929","role":"manager","created_at":"2024-03-23T19:14:17.794451Z"},{"id":17,"email":null,"is_active":true,"is_superuser":false,"is_verified":false,"username":"[Pocarr] Yulia#1481","role":"manager","created_at":"2024-03-23T19:14:17.751359Z"},{"id":27,"email":null,"is_active":true,"is_superuser":false,"is_verified":false,"username":"[Pocarr] Edgars#7615","role":"user","created_at":"2024-03-23T19:14:17.784562Z"},{"id":16,"email":null,"is_active":true,"is_superuser":false,"is_verified":false,"username":"ellinoiss (Юлия)#4022","role":"manager","created_at":"2024-03-23T19:14:17.747883Z"},{"id":23,"email":null,"is_active":true,"is_superuser":false,"is_verified":false,"username":"Timeforlucky#3804","role":"manager","created_at":"2024-03-23T19:14:17.771645Z"},{"id":24,"email":null,"is_active":true,"is_superuser":false,"is_verified":false,"username":"Bigfishka44 [Андрей]#4382","role":"manager","created_at":"2024-03-23T19:14:17.774406Z"},{"id":8,"email":null,"is_active":true,"is_superuser":false,"is_verified":false,"username":"managa#8905","role":"manager","created_at":"2024-03-23T19:14:17.719194Z"},{"id":9,"email":null,"is_active":true,"is_superuser":false,"is_verified":false,"username":"strangesense#7430","role":"manager","created_at":"2024-03-23T19:14:17.722322Z"},{"id":11,"email":null,"is_active":true,"is_superuser":false,"is_verified":false,"username":"shvedkin#4319","role":"manager","created_at":"2024-03-23T19:14:17.728499Z"},{"id":5,"email":null,"is_active":true,"is_superuser":false,"is_verified":false,"username":"Excellent233","role":"manager","created_at":"2024-03-23T19:14:17.709796Z"},{"id":60,"email":null,"is_active":true,"is_superuser":false,"is_verified":false,"username":"testtest","role":"admin","created_at":"2024-03-23T19:14:17.894045Z"},{"id":63,"email":null,"is_active":true,"is_superuser":false,"is_verified":false,"username":"dispbd","role":"admin","created_at":"2024-03-23T19:14:17.904721Z"},{"id":64,"email":"viktoria.rudakovaa@gmail.com","is_active":true,"is_superuser":false,"is_verified":false,"username":"viktoria.rudakovaa@gmail.com","role":"admin","created_at":"2024-03-23T19:14:17.908161Z"},{"id":67,"email":null,"is_active":true,"is_superuser":false,"is_verified":false,"username":"masterslova#0530","role":"admin","created_at":"2024-03-23T19:14:17.919964Z"},{"id":78,"email":"team.firestorm.mtt@gmail.com","is_active":true,"is_superuser":false,"is_verified":false,"username":"Firestorm","role":"admin","created_at":"2024-03-23T19:14:17.958976Z"},{"id":87,"email":"harrrrmonica@gmail.com","is_active":true,"is_superuser":false,"is_verified":false,"username":"Renato Usatiy#8097","role":"admin","created_at":"2024-03-23T19:14:17.992990Z"},{"id":55,"email":"moonglade777@gmail.com","is_active":true,"is_superuser":false,"is_verified":false,"username":"moonglade777@gmail.com","role":"manager","created_at":"2024-03-23T19:14:17.878012Z"},{"id":50,"email":null,"is_active":true,"is_superuser":false,"is_verified":false,"username":"ritsar","role":"manager","created_at":"2024-03-23T19:14:17.860591Z"},{"id":48,"email":null,"is_active":true,"is_superuser":false,"is_verified":false,"username":"Rosc#4350","role":"manager","created_at":"2024-03-23T19:14:17.854198Z"},{"id":45,"email":null,"is_active":true,"is_superuser":false,"is_verified":false,"username":"pokeredgeschool","role":"user","created_at":"2024-03-23T19:14:17.843994Z"},{"id":56,"email":"qasqick@gmail.com","is_active":true,"is_superuser":false,"is_verified":false,"username":"fudjn","role":"manager","created_at":"2024-03-23T19:14:17.881087Z"},{"id":47,"email":null,"is_active":true,"is_superuser":false,"is_verified":false,"username":"KOT74#9512","role":"manager","created_at":"2024-03-23T19:14:17.850925Z"},{"id":59,"email":null,"is_active":true,"is_superuser":false,"is_verified":false,"username":"Ivan212#4759","role":"manager","created_at":"2024-03-23T19:14:17.890917Z"}],"total":135,"page":1,"size":50,"pages":3}